{
  "project_info": {
    "project_number": "901808335929",
    "firebase_url": "https://cookday-9366d-default-rtdb.europe-west1.firebasedatabase.app",
    "project_id": "cookday-9366d",
    "storage_bucket": "cookday-9366d.appspot.com"
  },
  "client": [
    {
      "client_info": {
        "mobilesdk_app_id": "1:901808335929:android:83783a227618eb798a31e8",
        "android_client_info": {
          "package_name": "com.whalex.cookday"
        }
      },
      "oauth_client": [
        {
          "client_id": "901808335929-ivqc71hsjihtn7c6jt5mdv0kvourfj0l.apps.googleusercontent.com",
          "client_type": 3
        }
      ],
      "api_key": [
        {
          "current_key": "AIzaSyBa1gYxz6Uq78TiQOIQuuK1QrBCRL2jmZw"
        }
      ],
      "services": {
        "appinvite_service": {
          "other_platform_oauth_client": [
            {
              "client_id": "901808335929-ivqc71hsjihtn7c6jt5mdv0kvourfj0l.apps.googleusercontent.com",
              "client_type": 3
            }
          ]
        }
      }
    }
  ],
  "configuration_version": "1"
}